…
``` r
combined %>% summarize(sd(Age)) # sd  age 15.02
```

    ##    sd(Age)
    ## 1 15.01972

``` r
combined %>% group_by(NativeCountry)%>%
  summarize(n_unique = n_distinct(ID)) #brazil, bulgaria, croatia, czeh republic, danmark (40), finland, france, holland,  irak, japan, litauen, poland, romania, serbia, slovakia, spain, sri lanka, tyskland, ungarn (10 + 11)
```

    ## # A tibble: 22 x 2
    ##    NativeCountry  n_unique
    ##    <chr>             <int>
    ##  1 Brazil                1
    ##  2 Bulgaria              2
    ##  3 Croatia               1
    ##  4 Czech Republic        1
    ##  5 Danmark              25
    ##  6 Denmark              15
    ##  7 Finland               2
    ##  8 France                1
    ##  9 Holland               1
    ## 10 Hungary              11
    ## # ... with 12 more rows
…
